<svg xmlns="http://www.w3.org/2000/svg" width="187" height="66" viewBox="0 0 187 66" fill="none">
<path fill-rule="evenodd" clip-rule="evenodd" d="M38.3917 27.3181L38.3673 26.8902L38.3428 26.4622L38.3061 26.0343L38.2572 25.6185L38.1961 25.2028L38.1105 24.7993L38.0249 24.3958L37.9271 23.9923L37.817 23.601L37.6948 23.2098L37.5725 22.8307L37.4258 22.4517L37.279 22.0849L37.1201 21.7058L36.9489 21.3512L36.7655 20.9844L36.5821 20.6298L36.3742 20.2874L36.1663 19.9573L35.9463 19.6149L35.7017 19.297L35.4572 18.9791L35.2004 18.6612L34.9436 18.38L34.6624 18.0743L34.3812 17.7809L34.0755 17.4874L33.7698 17.2062L33.4519 16.9372L33.1218 16.6804L32.7794 16.3992L32.4982 16.2158L32.2292 16.0201L31.9479 15.8367L31.6667 15.6655L31.3855 15.4944L31.1043 15.3354L30.8108 15.1887L30.5051 15.0297L30.2117 14.883L29.9182 14.7607L29.6125 14.6262L29.3069 14.504L29.0012 14.3817L28.6833 14.2839L28.3776 14.186L28.0597 14.1005L27.7418 14.0026L27.3872 13.917L27.0204 13.8559L26.6535 13.7825L26.25 13.7214L25.8343 13.6603L25.4186 13.6114L24.9784 13.5625L24.5138 13.5258L24.0491 13.4891L23.5478 13.4646L23.0343 13.428L22.5085 13.4157L21.9705 13.4035L21.408 13.3913H10V42.1253H20.8823H21.946L22.9487 42.1009L23.8902 42.0642L24.7461 42.0031L25.1618 41.9664L25.5531 41.9297L25.9199 41.893L26.2867 41.8563L26.6291 41.8074L26.947 41.7463L27.2527 41.6974L27.5461 41.6363L27.8274 41.5751L28.0964 41.5018L28.3776 41.4162L28.6466 41.3306L28.9156 41.2572L29.1846 41.1594L29.4414 41.0616L29.6981 40.9638L29.9549 40.8537L30.1994 40.7437L30.444 40.6214L30.7008 40.4991L30.9453 40.3768L31.1898 40.2546L31.4222 40.1078L31.6667 39.9489L32.0702 39.6921L32.4615 39.4231L32.8405 39.1419L33.2073 38.8484L33.5742 38.555L33.9165 38.2371L34.2467 37.9314L34.5646 37.6135L34.8703 37.2833L35.1637 36.941L35.4449 36.5864L35.7139 36.2318L35.9707 35.8772L36.2153 35.4982L36.4476 35.1191L36.6677 34.7278L36.8755 34.3366L37.0712 33.9331L37.2546 33.5296L37.4258 33.1138L37.5847 32.6981L37.7314 32.2824L37.8659 31.8544L37.976 31.4265L38.0738 30.9863L38.1594 30.5339L38.245 30.0937L38.3061 29.6291L38.3428 29.1644L38.3795 28.6998L38.4039 28.2352L38.4162 27.7461L38.3917 27.3181ZM30.9698 28.2229L30.9331 28.6876L30.8842 29.1278L30.823 29.5557L30.7374 29.9714L30.6396 30.3749L30.5785 30.5706L30.5174 30.7662L30.4562 30.9618L30.3829 31.1575L30.2973 31.3654L30.2239 31.5365L30.1383 31.7322L30.0527 31.9156L29.9671 32.099L29.8693 32.2824L29.7715 32.4658L29.6614 32.637L29.5514 32.8082L29.4291 32.9793L29.3069 33.1383L29.1846 33.2973L29.0501 33.4562L28.9278 33.6152L28.7811 33.7619L28.6344 33.9086L28.4876 34.0676L28.3287 34.2143L28.1819 34.3488L28.023 34.4711L27.864 34.6056L27.7051 34.7278L27.5461 34.8379L27.3872 34.9602L27.216 35.0702L27.0448 35.168L26.8736 35.2658L26.7024 35.3637L26.519 35.4493L26.3356 35.5348L26.1522 35.6204L25.9566 35.6938L25.7732 35.7672L25.5898 35.8405L25.3941 35.9017L25.2107 35.9628L25.0151 36.0239L24.8194 36.0728L24.6116 36.1095L24.4037 36.1462L23.9758 36.2073L23.5478 36.2563L23.1076 36.2807L22.6552 36.2929H17.263V19.1748H22.6552L23.1076 19.187L23.5478 19.2114L23.9758 19.2481L24.4037 19.3215L24.6116 19.3704L24.8194 19.4071L25.0151 19.456L25.2107 19.5049L25.3941 19.566L25.5898 19.6272L25.7732 19.6883L25.9566 19.7617L26.1522 19.8473L26.3356 19.9329L26.519 20.0184L26.7024 20.1163L26.8736 20.2019L27.0448 20.2997L27.216 20.4097L27.3872 20.5198L27.5461 20.6298L27.7051 20.7521L27.864 20.8744L28.023 21.0089L28.1819 21.1434L28.3287 21.2901L28.4876 21.4246L28.6344 21.5713L28.7811 21.7303L28.9278 21.877L29.0501 22.0359L29.1846 22.1949L29.3069 22.3539L29.4291 22.5128L29.5514 22.684L29.6614 22.8552L29.7715 23.0264L29.8693 23.2098L29.9671 23.3932L30.0527 23.5766L30.1383 23.7478L30.2239 23.9434L30.2973 24.1268L30.3829 24.3224L30.4562 24.5059L30.5174 24.7137L30.5785 24.9094L30.6396 25.105L30.7374 25.5085L30.823 25.9242L30.8842 26.3522L30.9331 26.8046L30.9698 27.257V27.7216V28.2229Z" fill="#005AA8"/>
<path fill-rule="evenodd" clip-rule="evenodd" d="M66.221 33.554L66.1965 33.2117L66.1721 32.8693L66.1354 32.5514L66.0865 32.2335L66.0253 31.9278L65.952 31.6099L65.8664 31.3164L65.7686 31.0352L65.6585 30.754L65.5362 30.4728L65.3895 30.216L65.2428 29.9592L65.0838 29.7147L64.9127 29.4579L64.7292 29.2378L64.5458 29.0055L64.3502 28.7854L64.1301 28.5653L63.8978 28.3697L63.6532 28.174L63.4087 27.9784L63.1519 27.795L62.8707 27.6116L62.5772 27.4404L62.2716 27.2692L61.9659 27.1225L61.6235 26.9758L61.2934 26.8168L60.9388 26.6945L60.572 26.56L60.1929 26.4378L60.4253 26.3277L60.6453 26.2177L60.8654 26.0954L61.0733 25.9731L61.2812 25.8509L61.4768 25.7164L61.6602 25.5696L61.8436 25.4351L62.0148 25.2884L62.186 25.1417L62.3449 24.9827L62.5039 24.8238L62.6384 24.6526L62.7729 24.4814L62.9196 24.3102L63.0419 24.1268L63.1642 23.9434L63.2742 23.76L63.3842 23.5766L63.4821 23.3932L63.5677 23.1975L63.6532 22.9897L63.7266 22.794L63.7877 22.5862L63.8367 22.3783L63.8856 22.1704L63.9222 21.9504L63.9589 21.718L63.9956 21.4979V21.2779L64.0201 21.0455V20.5687L64.0078 20.3486L63.9834 20.1285L63.9712 19.9084L63.9467 19.7005L63.91 19.4927L63.8733 19.297L63.8367 19.1014L63.7877 18.9058L63.7388 18.7101L63.6777 18.5267L63.6166 18.3311L63.5432 18.1477L63.4698 17.9765L63.372 17.7931L63.2864 17.6219L63.1886 17.4507L63.0908 17.2673L62.993 17.1084L62.8829 16.9494L62.7607 16.7905L62.6384 16.6315L62.5161 16.4848L62.3816 16.3258L62.2349 16.1913L62.1004 16.0446L61.9414 15.9101L61.7825 15.7878L61.6235 15.6533L61.4523 15.531L61.2812 15.4088L61.0978 15.2865L60.9266 15.1765L60.7309 15.0664L60.5475 14.9564L60.3519 14.8585L60.144 14.7607L59.9362 14.6629L59.7161 14.5651L59.496 14.4795L59.2637 14.3939L59.0313 14.2961L58.799 14.2227L58.5545 14.1371L58.0532 13.9904L57.5274 13.8681L56.9772 13.7581L56.4269 13.6725L55.8278 13.5991L55.2164 13.5258L54.5806 13.4769L53.9203 13.4524L53.2356 13.428L52.5387 13.4157H41.9009V42.1498H54.8007H55.5099L56.1824 42.1253L56.8427 42.0887L57.4907 42.0275L58.1021 41.9542L58.689 41.8686L58.9824 41.8197L59.2637 41.7708L59.5327 41.7096L59.8017 41.6485L60.0707 41.5751L60.3274 41.514L60.5842 41.4406L60.8287 41.355L61.0611 41.2817L61.3056 41.1838L61.5379 41.0983L61.758 41.0004L61.9781 40.9026L62.1982 40.8048L62.3938 40.6948L62.6017 40.5847L62.7973 40.4747L62.993 40.3524L63.1764 40.2301L63.3598 40.1078L63.531 39.9733L63.7022 39.8511L63.8611 39.7043L64.0201 39.5576L64.1668 39.3987L64.3257 39.2519L64.4602 39.093L64.607 38.9463L64.7415 38.7751L64.8637 38.6161L64.986 38.4449L65.0961 38.2615L65.2061 38.0781L65.3162 37.8947L65.414 37.7113L65.4996 37.5157L65.5852 37.3323L65.6707 37.1366L65.7563 36.941L65.8297 36.7331L65.8908 36.5253L65.952 36.3052L66.0009 36.0851L66.0498 35.865L66.0865 35.6327L66.1232 35.4126L66.1476 35.1803L66.1721 34.9357L66.1843 34.6912L66.2087 34.4466V34.1532L66.221 33.9086V33.554ZM49.1762 18.5023H53.15L53.3823 18.5145H53.6147L53.8225 18.5512L54.0304 18.5756L54.226 18.6123L54.4217 18.649L54.6051 18.6979L54.7885 18.7468L54.9597 18.808L55.1186 18.8691L55.2776 18.9425L55.4243 19.028L55.5588 19.1136L55.7055 19.1992L55.8278 19.297L55.9501 19.3949L56.0601 19.5049L56.1579 19.6272L56.2557 19.7617L56.3413 19.8962L56.4147 20.0184L56.4881 20.1774L56.5492 20.3241L56.5981 20.4831L56.647 20.642L56.6837 20.8132L56.7204 20.9966L56.7448 21.1923L56.7571 21.3757L56.7815 21.5591V21.9504L56.7571 22.1338L56.7448 22.3049L56.7204 22.4761L56.6837 22.6351L56.647 22.794L56.5981 22.9408L56.537 23.0875L56.4758 23.222L56.4025 23.3565L56.3291 23.4788L56.2313 23.601L56.1457 23.7111L56.0479 23.8089L55.9378 23.9067L55.8156 24.0045L55.6933 24.1024L55.571 24.1879L55.4243 24.2613L55.2776 24.3347L55.1186 24.408L54.9474 24.4692L54.7763 24.5303L54.5928 24.5792L54.4094 24.6159L54.2138 24.6526L54.0059 24.6893L53.7981 24.7137L53.578 24.7259L53.3579 24.7382L53.1378 24.7504H49.1517V18.5023H49.1762ZM58.5667 33.7374L58.5422 33.9575L58.5178 34.1532L58.4933 34.361L58.4444 34.5567L58.3955 34.7401L58.3344 34.9113L58.261 35.0824L58.1754 35.2292L58.0776 35.3759L57.992 35.5104L57.882 35.6571L57.7597 35.7794L57.6374 35.9017L57.5029 36.0117L57.3562 36.1095L57.1972 36.2073L57.0261 36.3052L56.8427 36.3908L56.6593 36.4763L56.4514 36.5375L56.2313 36.5986L55.999 36.6598L55.7544 36.7087L55.4977 36.7454L55.2287 36.782L54.9474 36.8187L54.654 36.8309L54.3483 36.8554L54.0304 36.8676L53.688 36.8798H49.1639V29.8981H53.309H53.6391L53.957 29.9103H54.2749L54.5806 29.947L54.8741 29.9714L55.1431 30.0081L55.4121 30.0448L55.6566 30.0937L55.9012 30.1549L56.1335 30.216L56.3536 30.2894L56.5614 30.3627L56.7571 30.4483L56.9405 30.5461L57.1117 30.6439L57.2828 30.7418L57.4418 30.864L57.5763 30.9863L57.7108 31.1208L57.8331 31.2675L57.9431 31.402L58.0532 31.5488L58.151 31.7077L58.2366 31.8789L58.3099 32.0501L58.3711 32.2335L58.4322 32.4169L58.4689 32.6125L58.5056 32.8082L58.53 33.0283L58.5545 33.2484V33.7374H58.5667Z" fill="#005AA8"/>
<path fill-rule="evenodd" clip-rule="evenodd" d="M94.955 40.1812L94.6249 40.3646L94.307 40.548L93.9768 40.7192L93.6467 40.8659L93.3288 41.0249L92.9987 41.1838L92.6563 41.3306L92.3262 41.4773L91.996 41.6118L91.6659 41.7341L91.3235 41.8563L90.9934 41.9786L90.651 42.0887L90.3087 42.1865L89.9663 42.2843L89.6362 42.3821L89.2938 42.4677L88.9514 42.5411L88.5968 42.6267L88.2545 42.7L87.8999 42.7612L87.5575 42.8223L87.1907 42.8712L86.8483 42.9201L86.4815 42.9568L86.1147 42.9935L85.7601 43.0302L85.4055 43.0546L85.0265 43.0791L84.6597 43.0913H84.2928H83.4981L83.0823 43.0791L82.6666 43.0546L82.2509 43.0302L81.8474 42.9935L81.4561 42.9568L81.0526 42.8957L80.6613 42.8345L80.2823 42.7856L79.9033 42.7L79.5242 42.6267L79.1452 42.5166L78.7783 42.4188L78.4115 42.321L78.0447 42.1987L77.6901 42.0764L77.3355 41.9419L76.9932 41.8074L76.6508 41.6607L76.3084 41.4895L75.9905 41.3306L75.6604 41.1716L75.3425 40.9882L75.0368 40.8048L74.7189 40.6092L74.4132 40.4135L74.132 40.2057L73.8385 39.9978L73.5451 39.7533L73.2639 39.5332L72.9948 39.3008L72.7258 39.0441L72.4568 38.7873L72.2001 38.5305L71.9433 38.2493L71.6988 37.9681L71.4664 37.6868L71.2341 37.4056L71.014 37.1122L70.8062 36.8065L70.5861 36.5008L70.4027 36.1829L70.207 35.8772L70.0358 35.5471L69.8647 35.2292L69.7057 34.8868L69.5345 34.5444L69.4 34.2021L69.2533 33.8475L69.131 33.5051L68.9965 33.1505L68.8865 32.7959L68.7887 32.4413L68.7031 32.0623L68.6053 31.7077L68.5441 31.3409L68.4708 30.9618L68.4096 30.5828L68.3607 30.2038L68.324 29.8125L68.2874 29.4334L68.2629 29.0422L68.2507 28.6509V27.8439L68.2629 27.4282L68.2874 27.0247L68.324 26.6212L68.3607 26.2299L68.4096 25.8386L68.4585 25.4474L68.5319 25.0683L68.6053 24.6893L68.6908 24.3224L68.7887 23.9556L68.8743 23.5888L68.9843 23.2342L69.1066 22.8919L69.2289 22.5373L69.3756 22.1949L69.5101 21.8648L69.669 21.5346L69.828 21.2167L69.9992 20.8988L70.1826 20.5809L70.366 20.2752L70.5616 19.9695L70.7695 19.6639L70.9896 19.3704L71.2097 19.0892L71.442 18.8079L71.6865 18.5267L71.9433 18.2577L72.2001 17.9765L72.4568 17.7075L72.7381 17.4629L73.0193 17.2062L73.3005 16.9616L73.594 16.7293L73.8997 16.497L74.2053 16.2769L74.511 16.069L74.8412 15.8612L75.1591 15.6655L75.4892 15.4699L75.8193 15.2987L76.1617 15.1275L76.5163 14.9686L76.8587 14.8096L77.2133 14.6629L77.5801 14.5162L77.9469 14.3817L78.3137 14.2594L78.6928 14.1494L79.084 14.0393L79.4631 13.9293L79.8666 13.8437L80.2701 13.7703L80.6858 13.6847L81.0893 13.6114L81.5173 13.5502L81.933 13.5135L82.3609 13.4646L82.8011 13.4279L83.2413 13.4035L83.6815 13.3668H84.1339H84.5985H85.2466L85.9068 13.3913L86.5549 13.4402L87.2029 13.5135L87.8387 13.5869L88.4868 13.6847L89.1104 13.807L89.7462 13.9293L90.3698 14.1004L91.0056 14.2594L91.617 14.455L92.2406 14.6629L92.8642 14.8952L93.4755 15.152L94.0991 15.421L94.7105 15.7144V22.4394L94.4048 22.2438L94.1113 22.0726L93.8179 21.8892L93.5122 21.718L93.2187 21.5469L92.9131 21.3879L92.6074 21.2412L92.3139 21.0944L92.0205 20.9599L91.7148 20.8132L91.4091 20.6909L91.1157 20.5687L90.7977 20.4586L90.5043 20.3486L90.1986 20.2385L89.8929 20.1407L89.5995 20.0429L89.2938 19.9695L88.9881 19.8839L88.6947 19.7984L88.4012 19.7372L88.0833 19.6761L87.7776 19.6149L87.4842 19.566L87.1907 19.5294L86.885 19.4927L86.5793 19.456L86.2859 19.4315L85.9802 19.4071L85.6745 19.3826H85.3688L85.0632 19.3704L84.5252 19.3826L84.0116 19.4193L83.4981 19.4682L83.009 19.5294L82.7522 19.566L82.5199 19.6149L82.2876 19.6516L82.0552 19.7005L81.8229 19.7617L81.6028 19.8228L81.3828 19.8962L81.1627 19.9695L80.9548 20.0429L80.7469 20.1285L80.5268 20.2019L80.3312 20.2997L80.1356 20.3975L79.9399 20.4953L79.7443 20.6054L79.5609 20.7032L79.3775 20.8132L79.2063 20.9355L79.0229 21.0578L78.8517 21.1923L78.6805 21.3145L78.5093 21.449L78.3504 21.5958L78.1914 21.7425L78.0325 21.8892L77.8858 22.0359L77.7268 22.1949L77.6045 22.3661L77.47 22.525L77.3355 22.6962L77.2133 22.8674L77.1032 23.0264L76.9809 23.2098L76.8587 23.3932L76.7608 23.5766L76.663 23.76L76.5652 23.9556L76.4796 24.1513L76.394 24.3469L76.3084 24.5425L76.2351 24.7504L76.1617 24.9705L76.0883 25.1784L76.0272 25.3862L75.9661 25.6063L75.9294 25.8386L75.8805 26.0587L75.8438 26.291L75.8071 26.5111L75.7704 26.7557L75.746 27.0002L75.7215 27.2448L75.7093 27.4893L75.6848 27.7461V27.9906V28.2474V28.7487L75.7215 29.2378L75.746 29.4701L75.7582 29.7024L75.7949 29.9348L75.8316 30.1671L75.8683 30.3872L75.9049 30.6073L75.9661 30.8273L76.015 31.0474L76.0761 31.2553L76.1495 31.4632L76.1984 31.671L76.284 31.8789L76.3573 32.0623L76.4307 32.2702L76.5285 32.4536L76.6141 32.6492L76.7119 32.8326L76.8098 33.016L76.9198 33.1994L77.0176 33.3828L77.1399 33.554L77.2622 33.7252L77.3844 33.8964L77.5189 34.0553L77.6412 34.2143L77.7879 34.3733L77.9224 34.5322L78.0692 34.6789L78.2281 34.8257L78.3748 34.9724L78.5338 35.1191L78.6928 35.2414L78.8639 35.3759L79.0229 35.4982L79.2063 35.6082L79.3775 35.7305L79.5487 35.8528L79.7321 35.9506L79.9277 36.0484L80.0989 36.1462L80.2945 36.2318L80.4779 36.3296L80.6858 36.403L80.8814 36.4886L81.0771 36.5619L81.2849 36.6231L81.505 36.6842L81.7129 36.7453L81.933 36.7943L82.1531 36.8432L82.3609 36.8921L82.5933 36.941L82.8256 36.9654L83.0579 37.0021L83.2902 37.0266L83.5225 37.051L84.0116 37.0755L84.5129 37.0877L84.8431 37.0755L85.1732 37.0633H85.4911L85.8212 37.0266L86.1392 37.0021L86.4693 36.9532L86.7872 36.9043L87.1296 36.8554L87.4475 36.7943L87.7776 36.7209L88.1077 36.6598L88.4257 36.5742L88.7558 36.4886L89.0737 36.3785L89.4038 36.2929L89.734 36.1707L90.0641 36.0606L90.382 35.9383L90.7244 35.7916L91.0545 35.6693L91.3724 35.5104L91.7026 35.3637L92.0205 35.2047L92.3506 35.0335L92.6685 34.8623L93.0109 34.6789L93.341 34.4955L93.6589 34.2999L93.9891 34.1165L94.307 33.9086L94.6371 33.6885L94.955 33.4684V40.1812Z" fill="#005AA8"/>
<path d="M11.6874 47.4686H10.0367V52.6897H11.6874C12.7634 52.6897 13.4359 51.6993 13.4359 50.073C13.4359 48.4591 12.7757 47.4686 11.6874 47.4686ZM12.5678 51.577C12.3355 51.9316 12.0176 52.1028 11.6018 52.1028H10.5992V48.0556H11.6018C12.0176 48.0556 12.3599 48.239 12.5678 48.5813C12.7879 48.9481 12.8857 49.4005 12.8857 50.0853C12.8857 50.7578 12.7879 51.2346 12.5678 51.577Z" fill="#005AA8"/>
<path d="M14.3408 47.4686V52.6897H14.891V47.4686H14.3408V47.4686Z" fill="#005AA8"/>
<path d="M17.7644 49.9263V50.5132H19.0727V50.66C19.0727 51.5892 18.5102 52.2617 17.7277 52.2617C17.2875 52.2617 16.9085 52.0783 16.6517 51.736C16.3705 51.3691 16.1993 50.7455 16.1993 50.0853C16.1993 48.8136 16.7984 47.97 17.7032 47.97C18.3513 47.97 18.8281 48.3735 18.9382 49.046H19.5006C19.3417 47.9822 18.6936 47.3831 17.7032 47.3831C17.1775 47.3831 16.7617 47.5542 16.4194 47.8844C15.9303 48.3735 15.649 49.1927 15.649 50.1342C15.649 51.736 16.456 52.8486 17.6054 52.8486C18.1801 52.8486 18.6447 52.5919 19.0727 52.0172L19.2072 52.7141H19.5495V49.9263H17.7644Z" fill="#005AA8"/>
<path d="M20.54 47.4686V52.6897H21.0902V47.4686H20.54V47.4686Z" fill="#005AA8"/>
<path d="M21.7015 47.4686V48.0556H23.1077V52.6897H23.6579V48.0556H25.064V47.4686H21.7015V47.4686Z" fill="#005AA8"/>
<path d="M27.5095 47.4686H26.8003L25.2719 52.6897H25.8588L26.3112 51.1246H27.9619L28.4021 52.6897H29.0135L27.5095 47.4686ZM26.4457 50.5621L27.1427 48.19H27.1549L27.803 50.5621H26.4457Z" fill="#005AA8"/>
<path d="M30.1017 52.0906V47.4564H29.5637V52.6775H32.2292V52.0906H30.1017V52.0906Z" fill="#005AA8"/>
<path d="M36.8634 49.9263C37.2546 49.7062 37.4503 49.3272 37.4503 48.7892C37.4503 48.3979 37.328 48.0678 37.1079 47.8355C36.8756 47.5909 36.5944 47.4686 36.1786 47.4686H34.4546V52.6897H36.3865C36.79 52.6897 37.0835 52.5552 37.3158 52.2495C37.5236 51.9805 37.6459 51.6015 37.6459 51.198C37.6459 50.5621 37.4136 50.1831 36.8634 49.9263ZM35.0048 48.0556H36.0564C36.362 48.0556 36.5332 48.1045 36.68 48.239C36.8267 48.3857 36.9123 48.5935 36.9123 48.887C36.9123 49.1682 36.8267 49.4005 36.68 49.535C36.521 49.6695 36.362 49.7185 36.0564 49.7185H35.0048V48.0556ZM36.9 51.846C36.7533 52.0172 36.5821 52.0905 36.3254 52.0905H34.9926V50.2931H36.3254C36.5944 50.2931 36.7655 50.3665 36.9 50.5377C37.0223 50.7089 37.0957 50.929 37.0957 51.1857C37.0957 51.4547 37.0345 51.687 36.9 51.846Z" fill="#005AA8"/>
<path d="M41.1429 47.4686V51.1368C41.1429 51.8338 40.7272 52.2617 40.0424 52.2617C39.7245 52.2617 39.4678 52.1639 39.2599 51.9927C39.052 51.7971 38.9542 51.5281 38.9542 51.1368V47.4686H38.404V51.1368C38.404 52.2006 39.0276 52.8486 40.0424 52.8486C41.0451 52.8486 41.6931 52.1761 41.6931 51.1368V47.4686H41.1429Z" fill="#005AA8"/>
<path d="M44.8844 49.9386L43.8084 49.584C43.5639 49.4984 43.4049 49.4128 43.2949 49.315C43.1726 49.2049 43.0993 49.0093 43.0993 48.8014C43.0993 48.2756 43.4783 47.9211 44.053 47.9211C44.7377 47.9211 45.1045 48.2879 45.1168 48.9848H45.6303V48.8992C45.6303 48.4468 45.4469 48.0066 45.1534 47.7376C44.8844 47.4931 44.5176 47.3708 44.0652 47.3708C43.1237 47.3708 42.549 47.9577 42.549 48.8992C42.549 49.5351 42.8303 49.9386 43.3927 50.122L44.4565 50.4643C44.9945 50.6355 45.239 50.9045 45.239 51.308C45.239 51.5892 45.1168 51.8705 44.9333 52.0294C44.7622 52.1761 44.4932 52.2495 44.1386 52.2495C43.6739 52.2495 43.3683 52.115 43.1604 51.8093C43.0137 51.6015 42.9403 51.3447 42.9403 51.0512V51.0268H42.4268C42.4268 51.5036 42.5123 51.8338 42.6835 52.1028C42.9892 52.5919 43.4661 52.8486 44.1263 52.8486C44.6399 52.8486 45.0556 52.7141 45.3246 52.4451C45.6181 52.1639 45.7893 51.6993 45.7893 51.2469C45.7893 50.6111 45.4591 50.1342 44.8844 49.9386Z" fill="#005AA8"/>
<path d="M46.6452 47.4686V52.6897H47.1954V47.4686H46.6452V47.4686Z" fill="#005AA8"/>
<path d="M50.9614 47.4686V51.736H50.9492L48.7238 47.4686H48.1369V52.6897H48.6504V48.459H48.6627L50.8636 52.6897H51.4749V47.4686H50.9614V47.4686Z" fill="#005AA8"/>
<path d="M53.0033 52.0905V50.3054H55.3387V49.7185H53.0033V48.0556H55.4243V47.4686H52.4653V52.6897H55.5344V52.1028H53.0033V52.0905Z" fill="#005AA8"/>
<path d="M58.579 49.9386L57.503 49.584C57.2585 49.4984 57.0995 49.4128 56.9895 49.315C56.8672 49.2049 56.7938 49.0093 56.7938 48.8014C56.7938 48.2756 57.1729 47.9211 57.7476 47.9211C58.4323 47.9211 58.7991 48.2879 58.8113 48.9848H59.3249V48.8992C59.3249 48.4468 59.1415 48.0066 58.848 47.7376C58.579 47.4931 58.2122 47.3708 57.7598 47.3708C56.8183 47.3708 56.2436 47.9577 56.2436 48.8992C56.2436 49.5351 56.5248 49.9386 57.0873 50.122L58.1511 50.4643C58.6891 50.6355 58.9336 50.9045 58.9336 51.308C58.9336 51.5892 58.8113 51.8705 58.6279 52.0294C58.4567 52.1761 58.1877 52.2495 57.8332 52.2495C57.3685 52.2495 57.0628 52.115 56.855 51.8093C56.7082 51.6015 56.6349 51.3447 56.6349 51.0512V51.0268H56.1213C56.1213 51.5036 56.2069 51.8338 56.3781 52.1028C56.6838 52.5919 57.1607 52.8486 57.8209 52.8486C58.3345 52.8486 58.7502 52.7141 59.0192 52.4451C59.3127 52.1639 59.4838 51.6993 59.4838 51.2469C59.4961 50.6111 59.1659 50.1342 58.579 49.9386Z" fill="#005AA8"/>
<path d="M62.4917 49.9386L61.4157 49.584C61.1712 49.4984 61.0122 49.4128 60.9022 49.315C60.7799 49.2049 60.7066 49.0093 60.7066 48.8014C60.7066 48.2756 61.0856 47.9211 61.6603 47.9211C62.345 47.9211 62.7118 48.2879 62.7241 48.9848H63.2376V48.8992C63.2376 48.4468 63.0542 48.0066 62.7607 47.7376C62.4917 47.4931 62.1249 47.3708 61.6725 47.3708C60.731 47.3708 60.1563 47.9577 60.1563 48.8992C60.1563 49.5351 60.4376 49.9386 61 50.122L62.0638 50.4643C62.6018 50.6355 62.8463 50.9045 62.8463 51.308C62.8463 51.5892 62.7241 51.8705 62.5406 52.0294C62.3695 52.1761 62.1005 52.2495 61.7459 52.2495C61.2812 52.2495 60.9756 52.115 60.7677 51.8093C60.621 51.6015 60.5476 51.3447 60.5476 51.0512V51.0268H60.0341C60.0341 51.5036 60.1196 51.8338 60.2908 52.1028C60.5843 52.5919 61.0734 52.8486 61.7336 52.8486C62.2472 52.8486 62.6629 52.7141 62.9319 52.4451C63.2254 52.1639 63.3966 51.6993 63.3966 51.2469C63.4088 50.6111 63.0786 50.1342 62.4917 49.9386Z" fill="#005AA8"/>
<path d="M68.7154 50.7822C68.6665 51.1368 68.6053 51.3814 68.5197 51.5892C68.3363 52.0172 67.9818 52.2617 67.5171 52.2617C66.6612 52.2617 66.1232 51.4303 66.1232 50.1342C66.1232 48.8014 66.6368 47.97 67.4682 47.97C67.8106 47.97 68.1407 48.0922 68.3119 48.3001C68.4708 48.4835 68.5564 48.6914 68.6176 49.0826H69.18C68.9966 47.9333 68.4708 47.3831 67.5293 47.3831C66.9669 47.3831 66.5023 47.6031 66.1843 48.0311C65.7931 48.5446 65.5852 49.3027 65.5852 50.1464C65.5852 51.0023 65.8053 51.736 66.1966 52.2495C66.5267 52.6652 66.9424 52.8609 67.5293 52.8609C68.5564 52.8609 69.1433 52.1639 69.2778 50.7945H68.7154V50.7822Z" fill="#005AA8"/>
<path d="M73.1661 47.9333C72.8116 47.5665 72.3592 47.3831 71.8334 47.3831C70.5984 47.3831 69.767 48.4835 69.767 50.122C69.767 51.7604 70.5984 52.8609 71.8334 52.8609C72.3592 52.8609 72.8116 52.6775 73.1661 52.3106C73.6308 51.8215 73.8998 51.0268 73.8998 50.122C73.8998 49.2171 73.6308 48.4224 73.1661 47.9333ZM71.8334 52.2617C70.9163 52.2617 70.3172 51.4058 70.3172 50.1097C70.3172 48.8259 70.9163 47.9577 71.8334 47.9577C72.7504 47.9577 73.3496 48.8136 73.3496 50.1097C73.3618 51.4058 72.7504 52.2617 71.8334 52.2617Z" fill="#005AA8"/>
<path d="M77.8125 47.4686L76.5653 52.005H76.5531L75.3059 47.4564H74.5478V52.6775H75.0613V48.3001H75.0736L76.2718 52.6775H76.8465L78.0448 48.3001H78.057V52.6775H78.5706V47.4564H77.8125V47.4686Z" fill="#005AA8"/>
<path d="M81.3095 47.4686H79.5365V52.6897H80.0867V50.4765H81.4317C81.7619 50.4765 82.0309 50.3543 82.2632 50.1097C82.52 49.8285 82.63 49.4861 82.63 49.0093C82.63 48.0189 82.1531 47.4686 81.3095 47.4686ZM81.8474 49.6206C81.7007 49.804 81.5051 49.8774 81.2239 49.8774H80.0867V48.0433H81.2239C81.7496 48.0433 82.0553 48.3857 82.0553 48.9604C82.0553 49.2294 81.9819 49.4617 81.8474 49.6206Z" fill="#005AA8"/>
<path d="M85.2467 47.4686H84.5375L83.0091 52.6897H83.596L84.0484 51.1246H85.6991L86.1393 52.6897H86.7506L85.2467 47.4686ZM84.1829 50.5621L84.8799 48.19H84.8921L85.5401 50.5621H84.1829Z" fill="#005AA8"/>
<path d="M90.1131 47.4686V51.736H90.1009L87.8755 47.4686H87.2764V52.6897H87.7899V48.459H87.8021L90.003 52.6897H90.6144V47.4686H90.1131V47.4686Z" fill="#005AA8"/>
<path d="M94.2826 47.4686L93.0599 50.0119L91.8372 47.4686H91.1647L92.7909 50.6355V52.6775H93.3411V50.6355L94.9674 47.4686H94.2826V47.4686Z" fill="#005AA8"/>
<path d="M168.551 41.4284C168.563 44.6931 167.255 47.6521 165.115 49.7918C162.988 51.9194 160.053 53.2277 156.813 53.2277H100.421C100.164 53.2277 99.9071 53.1666 99.6992 53.0443C99.5647 52.9709 99.4547 52.8853 99.3446 52.7875C99.0756 52.5063 98.9045 52.1273 98.9045 51.7115V36.7698H98.8922C98.8922 34.8501 99.6748 33.1016 100.934 31.8422C100.959 31.8178 100.995 31.7811 101.02 31.7566C101.081 31.6955 101.142 31.6466 101.203 31.5854C101.301 31.4999 101.387 31.4265 101.484 31.3409C101.546 31.292 101.619 31.2431 101.68 31.1819C101.766 31.1208 101.863 31.0474 101.949 30.9863C102.047 30.9252 102.132 30.864 102.23 30.8029C102.426 30.6806 102.634 30.5706 102.842 30.4728C102.915 30.4361 102.976 30.4116 103.049 30.3749C103.16 30.326 103.27 30.2894 103.38 30.2404C103.453 30.216 103.526 30.1915 103.6 30.1671C103.673 30.1426 103.746 30.1182 103.82 30.0937C104.456 29.8981 105.14 29.8003 105.837 29.8003H123.176C124.447 29.8003 125.597 29.2867 126.428 28.4553C127.247 27.636 127.761 26.4989 127.773 25.2395C127.797 22.6962 125.682 20.6054 123.139 20.6054H99.5892C99.1979 20.6054 98.88 20.2875 98.88 19.8962V14.0638C98.88 13.6725 99.1979 13.3546 99.5892 13.3546H122.919C129.375 13.3546 134.669 18.5634 134.694 25.0194C134.694 26.719 134.339 28.3452 133.691 29.8003C133.104 31.1208 132.273 32.3191 131.27 33.3217C129.436 35.1558 127.003 36.3785 124.288 36.672H107.83C107.561 36.672 107.305 36.7331 107.06 36.8309C107.023 36.8554 106.974 36.8676 106.938 36.8921C106.889 36.9165 106.84 36.9532 106.779 36.9899C106.681 37.051 106.583 37.1366 106.51 37.2222C106.167 37.5646 105.972 38.017 105.972 38.5305V41.245C105.947 41.4284 105.935 41.624 105.935 41.8197V45.28C105.935 45.3778 105.96 45.4756 105.996 45.5612C106.033 45.6468 106.082 45.7202 106.143 45.7813C106.167 45.8058 106.192 45.8302 106.229 45.8547C106.277 45.8913 106.314 45.9158 106.375 45.9403C106.424 45.9647 106.485 45.9769 106.534 45.9892C106.546 45.9892 106.559 45.9892 106.559 45.9892C106.595 45.9892 106.62 46.0014 106.657 46.0014H156.801C158.084 46.0014 159.246 45.4878 160.077 44.6442C160.909 43.8127 161.422 42.6633 161.435 41.4039C161.459 38.8362 159.319 36.7331 156.752 36.7331H138.741C136.589 36.7331 134.706 35.6204 133.63 33.9331C135.647 31.5243 136.87 28.4186 136.87 25.0316C136.87 21.6447 135.66 18.5512 133.642 16.1424C134.718 14.4673 136.601 13.3668 138.741 13.3668H164.504C164.895 13.3668 165.213 13.6847 165.213 14.076V19.7739C165.213 20.1652 164.895 20.4831 164.504 20.4831H140.709C140.196 20.4831 139.792 20.8988 139.792 21.4001V28.8099C139.792 29.3112 140.208 29.7269 140.709 29.7269H156.739C163.22 29.7391 168.527 34.9479 168.551 41.4284Z" fill="url(#paint0_linear)"/>
<path d="M176.389 18.6735L173.491 13L170.593 18.6735L169.957 19.9084H171.339L171.791 19.0158H175.166L175.618 19.9084H177L176.389 18.6735ZM172.464 17.7442L173.503 15.7145L174.542 17.7442H172.464Z" fill="url(#paint1_linear)"/>
<path d="M175.716 23.9678V28.3697L171.278 24.946L170.043 24.0045V30.9007H171.278V26.5233L175.716 29.947L176.951 30.9007V23.9923L175.716 23.9678Z" fill="url(#paint2_linear)"/>
<path d="M173.503 34.9602C171.596 34.9602 170.043 36.513 170.043 38.4205C170.043 40.3279 171.596 41.8808 173.503 41.8808C175.41 41.8808 176.963 40.3279 176.963 38.4205C176.951 36.513 175.398 34.9602 173.503 34.9602ZM173.503 40.6336C172.28 40.6336 171.278 39.631 171.278 38.4083C171.278 37.1855 172.28 36.1829 173.503 36.1829C174.726 36.1829 175.728 37.1855 175.728 38.4083C175.716 39.6432 174.726 40.6336 173.503 40.6336Z" fill="url(#paint3_linear)"/>
<path d="M176.768 47.8355V47.7988C176.768 46.7717 175.924 45.928 174.897 45.928H172.097C171.07 45.928 170.238 46.7717 170.238 47.7988V47.8355C170.238 48.2268 170.361 48.5936 170.569 48.887C170.642 48.9971 170.715 49.0949 170.801 49.1805C171.143 49.5106 171.596 49.7063 172.097 49.7063H174.591C175.117 49.7063 175.545 50.1342 175.545 50.6478C175.545 51.1735 175.117 51.6015 174.591 51.6015H172.427C171.901 51.6015 171.473 51.1735 171.473 50.6478H170.238C170.238 51.8583 171.217 52.8364 172.427 52.8364H174.591C175.802 52.8364 176.78 51.8583 176.78 50.6478C176.78 50.122 176.597 49.6451 176.291 49.2661C176.266 49.2416 176.242 49.2049 176.218 49.1805C175.826 48.7525 175.252 48.4713 174.604 48.4713H172.109C171.767 48.4713 171.473 48.1901 171.473 47.8355V47.7988C171.473 47.4564 171.755 47.163 172.109 47.163H174.909C175.252 47.163 175.545 47.4442 175.545 47.7988V47.8355H176.768Z" fill="url(#paint4_linear)"/>
<defs>
<linearGradient id="paint0_linear" x1="149.245" y1="33.2933" x2="105.612" y2="33.2933" gradientUnits="userSpaceOnUse">
<stop stop-color="#005AA8"/>
<stop offset="0.6634" stop-color="#2F966D"/>
<stop offset="1" stop-color="#4FB549"/>
</linearGradient>
<linearGradient id="paint1_linear" x1="175.117" y1="13.5555" x2="164.861" y2="53.8319" gradientUnits="userSpaceOnUse">
<stop stop-color="#005AA8"/>
<stop offset="0.6634" stop-color="#2F966D"/>
<stop offset="1" stop-color="#4FB549"/>
</linearGradient>
<linearGradient id="paint2_linear" x1="176.92" y1="14.0146" x2="166.664" y2="54.2909" gradientUnits="userSpaceOnUse">
<stop stop-color="#005AA8"/>
<stop offset="0.6634" stop-color="#2F966D"/>
<stop offset="1" stop-color="#4FB549"/>
</linearGradient>
<linearGradient id="paint3_linear" x1="179.541" y1="14.6821" x2="169.286" y2="54.9584" gradientUnits="userSpaceOnUse">
<stop stop-color="#005AA8"/>
<stop offset="0.6634" stop-color="#2F966D"/>
<stop offset="1" stop-color="#4FB549"/>
</linearGradient>
<linearGradient id="paint4_linear" x1="182.134" y1="15.3422" x2="171.878" y2="55.6185" gradientUnits="userSpaceOnUse">
<stop stop-color="#005AA8"/>
<stop offset="0.6634" stop-color="#2F966D"/>
<stop offset="1" stop-color="#4FB549"/>
</linearGradient>
</defs>
</svg>