# três páginas : HOME, SERVIÇOS E CONTATO
#
# 1 : -Cabeçalho, com logo da dbc, e menu de navegação em lista;
#     -Título;
#     -Parágrafo;
#     -Rodapé;
#
# 2 : -Cabeçalho, com logo da dbc, e menu de navegação em lista;
#     -Imagem
#     -Parágrafo;
#     -Título;
#     -Tabela;
#     -Rodapé;
#
# 3 : -Cabeçalho, com logo da dbc, e menu de navegação em lista;
#     -Título;
#     -Parágrafo;
#     -Link para o mapa com endereço da DBC;
#     -Rodapé;